Assessing and ensuring data quality of measurements
…
---

background-image: url()
background-color: #FFFFFF

## Outlier detection - example dataset

* And the dataset looks as follows:

```r
exdata1
```

```
## # A tibble: 1,361 × 5
##    Locality_id               Year Sex   Age   Forearm_length_mm
##    <chr>                    <int> <chr> <chr>             <dbl>
##  1 44_MACHECOUL              2011 M     <NA>               32.1
##  2 44_MACHECOUL              2011 M     <NA>               31  
##  3 44_MACHECOUL              2011 M     <NA>               30.6
##  4 44_MACHECOUL              2011 M     <NA>               32  
##  5 22_SAINT-JACUT-DE-LA-MER  2009 F     <NA>               32.5
##  6 22_SAINT-JACUT-DE-LA-MER  2009 F     <NA>               31.6
##  7 22_SAINT-JACUT-DE-LA-MER  2009 F     <NA>               32.1
##  8 22_SAINT-JACUT-DE-LA-MER  2009 F     <NA>               32.3
##  9 22_SAINT-JACUT-DE-LA-MER  2009 F     <NA>               32.9
## 10 56_SENE                   2009 M     <NA>               30.7
## # … with 1,351 more rows
```
…
---

background-image: url()
background-color: #FFFFFF

## Outlier detection - scatterplot and statistical distance

* And the dataset looks as follows:

```r
exdata2
```

```
## # A tibble: 78 × 13
##       id site          date   species    trap  sex   stage total_length ear_length tibia_length
##    <int> <chr>         <chr>  <chr>      <chr> <chr> <chr>        <int>      <int>        <int>
##  1     1 Bukit Kesing… 25-Oc… Balionyct… MN    F     J               47         11           18
##  2     2 Bukit Kesing… 26-Oc… Cynopteru… MN    M     A               60         14           22
##  3     3 Bukit Kesing… 26-Oc… Cynopteru… MN    F     A               75         20           28
##  4     4 Bukit Kesing… 26-Oc… Cynopteru… MN    F     J               63         18           24
##  5     5 Bukit Kesing… 16-No… Balionyct… MN    F     J               44         10           15
##  6     6 Bukit Kesing… 16-No… Cynopteru… MN    F     A               71         21           29
##  7     7 Bukit Kesing… 16-No… Cynopteru… MN    M     A               64         16           24
##  8     8 Bukit Kesing… 17-No… Cynopteru… MN    F     A               64         19           21
##  9     1 Ladang Tayor… 27-Oc… Cynopteru… MN    M     A               62         17           22
## 10     2 Ladang Tayor… 28-Oc… Rhinolopu… HT    F     J               41         16           17
## # … with 68 more rows, and 3 more variables: hind_foot_length <int>, tail_length <int>,
## #   weight <dbl>
```
…
